{
    "PlaceDispo": {
        "duree": "30",
        "dureeapresdebutsceance": "600",
        "nbsalle": "2",
        "salle": {
            "1": {
                "couleur": "VIOLET",
                "positionx": "290",
                "positiony": "955"
            },
            "2": {
                "couleur": "ROUGE",
                "positionx": "290",
                "positiony": "1000"
            },
            "nb": "2"
        },
        "token": "xml",
        "url": "https://staubincormierlemauclerc.cineoffice.fr/TMSexport/staubincormierlemauclerc"
    },
    "rows": [
        {
            "active": "oui",
            "duree": "10",
            "id": "2",
            "type": "image",
            "url": "http://ds.mauclerc.fr/cinepromo/secu1.png"
        },
        {
            "active": "oui",
            "duree": "12",
            "id": 4,
            "type": "image",
            "url": "http://ds.mauclerc.fr/cinepromo/ancv.png"
        },
        {
            "active": "oui",
            "duree": "15",
            "id": "9",
            "type": "image",
            "url": "http://ds.mauclerc.fr/cinepromo/minicubbio.png"
        },
        {
            "active": "oui",
            "duree": "15",
            "id": "11",
            "type": "image",
            "url": "http://ds.mauclerc.fr/cinepromo/atmos.png"
        },
        {
            "active": "oui",
            "duree": "15",
            "id": "10",
            "type": "image",
            "url": "http://ds.mauclerc.fr/cinepromo/chgcarte.png"
        }
    ]
}